{
    "artists": {
      "href": "https://api.spotify.com/v1/search?query=alan+walker&type=artist&locale=en-US%2Cen%3Bq%3D0.5&offset=0&limit=3",
      "items": [
        {
          "external_urls": {
            "spotify": "https://open.spotify.com/artist/7vk5e3vY1uw9plTHJAMwjN"
          },
          "followers": {
            "href": null,
            "total": 36777529
          },
          "genres": [
            "electro house"
          ],
          "href": "https://api.spotify.com/v1/artists/7vk5e3vY1uw9plTHJAMwjN",
          "id": "7vk5e3vY1uw9plTHJAMwjN",
          "images": [
            {
              "height": 640,
              "url": "https://i.scdn.co/image/ab6761610000e5ebce202eea14763b8b7696936e",
              "width": 640
            },
            {
              "height": 320,
              "url": "https://i.scdn.co/image/ab67616100005174ce202eea14763b8b7696936e",
              "width": 320
            },
            {
              "height": 160,
              "url": "https://i.scdn.co/image/ab6761610000f178ce202eea14763b8b7696936e",
              "width": 160
            }
          ],
          "name": "Alan Walker",
          "popularity": 82,
          "type": "artist",
          "uri": "spotify:artist:7vk5e3vY1uw9plTHJAMwjN"
        },
        {
          "external_urls": {
            "spotify": "https://open.spotify.com/artist/64KEffDW9EtZ1y2vBYgq8T"
          },
          "followers": {
            "href": null,
            "total": 34757971
          },
          "genres": [
            "brostep",
            "dance pop",
            "edm",
            "pop",
            "pop dance",
            "progressive electro house"
          ],
          "href": "https://api.spotify.com/v1/artists/64KEffDW9EtZ1y2vBYgq8T",
          "id": "64KEffDW9EtZ1y2vBYgq8T",
          "images": [
            {
              "height": 640,
              "url": "https://i.scdn.co/image/ab6761610000e5eb41e4a3b8c1d45a9e49b6de21",
              "width": 640
            },
            {
              "height": 320,
              "url": "https://i.scdn.co/image/ab6761610000517441e4a3b8c1d45a9e49b6de21",
              "width": 320
            },
            {
              "height": 160,
              "url": "https://i.scdn.co/image/ab6761610000f17841e4a3b8c1d45a9e49b6de21",
              "width": 160
            }
          ],
          "name": "Marshmello",
          "popularity": 84,
          "type": "artist",
          "uri": "spotify:artist:64KEffDW9EtZ1y2vBYgq8T"
        },
        {
          "external_urls": {
            "spotify": "https://open.spotify.com/artist/3LJdcfPLUXngXgiOTkxMjn"
          },
          "followers": {
            "href": null,
            "total": 7239
          },
          "genres": [],
          "href": "https://api.spotify.com/v1/artists/3LJdcfPLUXngXgiOTkxMjn",
          "id": "3LJdcfPLUXngXgiOTkxMjn",
          "images": [
            {
              "height": 640,
              "url": "https://i.scdn.co/image/ab67616d0000b27380af0e7bae301cdba82dc96b",
              "width": 640
            },
            {
              "height": 300,
              "url": "https://i.scdn.co/image/ab67616d00001e0280af0e7bae301cdba82dc96b",
              "width": 300
            },
            {
              "height": 64,
              "url": "https://i.scdn.co/image/ab67616d0000485180af0e7bae301cdba82dc96b",
              "width": 64
            }
          ],
          "name": "Alan Walker",
          "popularity": 17,
          "type": "artist",
          "uri": "spotify:artist:3LJdcfPLUXngXgiOTkxMjn"
        }
      ],
      "limit": 3,
      "next": "https://api.spotify.com/v1/search?query=alan+walker&type=artist&locale=en-US%2Cen%3Bq%3D0.5&offset=3&limit=3",
      "offset": 0,
      "previous": null,
      "total": 108
    }
  }